{
    "metadata": [
      {
        "src": [
          {
            "src": "../",
            "files": [
              "Runtime/**.cs"
            ]
          }
        ],
        "filter": "filterConfig.yml",
        "dest": "api"
      }
    ],
    "build": {
        "globalMetadata": {
            "_appTitle": "SmartTale Core",
            "_appFooter": "SmartTale Core",
            "_enableSearch": true
        },
        "content": [
            {
                "files": [ "toc.yml", "index.md" ]
            },
            {
                "src": "api",
                "files": [ "*.yml" ],
                "dest": "api"
            },
            {
                "src": "manual",
                "files": [ "toc.yml", "*.md" ],
                "dest": "manual"
            }
        ],
        "overwrite": [
            {
                "src": "..",
                "files": [ "./**/*.md" ]
            }
        ],
        "resource": [
            {
                "files": [ "resources/**/*" ]
            }
        ],
        "xref": [ "https://normanderwan.github.io/DocFxForUnity/Unity/xrefmap.yml" ],
        "dest": "./_site"
    }
}