%YAML 1.1
%TAG !u! tag:unity3d.com,2011:
--- !u!114 &11400000
MonoBehaviour:
  m_ObjectHideFlags: 0
  m_CorrespondingSourceObject: {fileID: 0}
  m_PrefabInstance: {fileID: 0}
  m_PrefabAsset: {fileID: 0}
  m_GameObject: {fileID: 0}
  m_Enabled: 1
  m_EditorHideFlags: 0
  m_Script: {fileID: 11500000, guid: 468a46d0ae32c3544b7d98094e6448a9, type: 3}
  m_Name: AddressableAssetSettings
  m_EditorClassIdentifier: 
  m_DefaultGroup: b60c6a5120a8f404c98aefcc3ced3a46
  m_BuildRemoteCatalog: 0
  m_BundleLocalCatalog: 0
  m_DisableCatalogUpdateOnStart: 0
  m_UniqueBundleIds: 0
  m_RemoteCatalogBuildPath:
    m_Id: 
  m_RemoteCatalogLoadPath:
    m_Id: 
  m_overridePlayerVersion: 
  m_GroupAssets:
  - {fileID: 11400000, guid: 3bf4021d6c1673a4cb3188b76a8cd6f6, type: 2}
  - {fileID: 11400000, guid: a167e17da2621ff4b8ac2bbf619dcb35, type: 2}
  - {fileID: 11400000, guid: b12a628f7f0a4b44b9cc5589536265e5, type: 2}
  - {fileID: 11400000, guid: 34daca4d967c26c41ad6f5beac12f5cf, type: 2}
  - {fileID: 11400000, guid: d1b00dff8c90cf04ab4e47c5d96eeb03, type: 2}
  m_BuildSettings:
    m_CompileScriptsInVirtualMode: 0
    m_CleanupStreamingAssetsAfterBuilds: 1
    m_LogResourceManagerExceptions: 1
    m_BundleBuildPath: Temp/com.unity.addressables/AssetBundles
  m_ProfileSettings:
    m_Profiles:
    - m_InheritedParent: 
      m_Id: 402195b6ecc79d94f945628774b1e9e6
      m_ProfileName: Default
      m_Values:
      - m_Id: 39d8d813e8553be4caf6b75e5c5f3e52
        m_Value: '[UnityEditor.EditorUserBuildSettings.activeBuildTarget]'
      - m_Id: a467e5bee887f964b80693f04c4bfc31
        m_Value: '[UnityEngine.AddressableAssets.Addressables.BuildPath]/[BuildTarget]'
      - m_Id: 1da6a0e439c304c4baa012a773012a57
        m_Value: '{UnityEngine.AddressableAssets.Addressables.RuntimePath}/[BuildTarget]'
      - m_Id: f4fcd4cd1cc2ecb43985f16173ec4dd8
        m_Value: ServerData/[BuildTarget]
      - m_Id: 6db2f0283b0006c468d5a43586ed9101
        m_Value: http://localhost/[BuildTarget]
    m_ProfileEntryNames:
    - m_Id: 39d8d813e8553be4caf6b75e5c5f3e52
      m_Name: BuildTarget
      m_InlineUsage: 0
    - m_Id: a467e5bee887f964b80693f04c4bfc31
      m_Name: LocalBuildPath
      m_InlineUsage: 0
    - m_Id: 1da6a0e439c304c4baa012a773012a57
      m_Name: LocalLoadPath
      m_InlineUsage: 0
    - m_Id: f4fcd4cd1cc2ecb43985f16173ec4dd8
      m_Name: RemoteBuildPath
      m_InlineUsage: 0
    - m_Id: 6db2f0283b0006c468d5a43586ed9101
      m_Name: RemoteLoadPath
      m_InlineUsage: 0
    m_ProfileVersion: 1
  m_LabelTable:
    m_LabelNames:
    - default
    - Music
    - Sproot
  m_SchemaTemplates: []
  m_GroupTemplateObjects:
  - {fileID: 11400000, guid: 4e9bd2d7a526d3c43b1722ef566fe989, type: 2}
  m_InitializationObjects: []
  m_CertificateHandlerType:
    m_AssemblyName: 
    m_ClassName: 
  m_ActivePlayerDataBuilderIndex: 3
  m_DataBuilders:
  - {fileID: 11400000, guid: bc63f32706688064d9d70e37e6d214e7, type: 2}
  - {fileID: 11400000, guid: 3fd901a5002b82e4fbc4eeb864296a70, type: 2}
  - {fileID: 11400000, guid: b2e5c54272c1f334b96bc41c74a13d85, type: 2}
  - {fileID: 11400000, guid: ac3ee87fe57aac542ac44c8cef5c37bb, type: 2}
  m_ActiveProfileId: 402195b6ecc79d94f945628774b1e9e6
  m_HostingServicesManager:
    m_HostingServiceInfos: []
    m_Settings: {fileID: 11400000}
    m_NextInstanceId: 0
    m_RegisteredServiceTypeRefs: []
